<svg xmlns="http://www.w3.org/2000/svg" width="29" height="25" viewBox="0 0 29 25">
    <path fill="#FF8200" fill-rule="nonzero" d="M14.157 2.986c-1.91 0-3.748.745-5.123 2.12-1.37 1.37-2.088 3.217-2.075 5.181l.005.758-.755.069c-2.538.232-4.497 2.347-4.497 4.894a4.951 4.951 0 0 0 4.945 4.945h4.038v1.65H6.657a6.601 6.601 0 0 1-6.595-6.595c0-3.157 2.247-5.813 5.27-6.43.148-2.128 1.016-4.12 2.535-5.639a8.874 8.874 0 0 1 6.29-2.603 8.89 8.89 0 0 1 6.299 2.603 8.781 8.781 0 0 1 2.287 4.035c3.21.868 5.51 3.778 5.51 7.168 0 4.11-3.351 7.46-7.46 7.46h-3.174v-1.65h3.173c3.199 0 5.81-2.611 5.81-5.81 0-2.777-1.99-5.145-4.705-5.671l-.544-.106-.108-.544c-.283-1.423-.946-2.705-1.956-3.715a7.241 7.241 0 0 0-5.132-2.12zm-.895 11.362l-2.015 1.678-1.056-1.268 3.91-3.254 3.914 3.18-1.04 1.28-2.063-1.675v10.249h-1.65v-10.19z"/>
</svg>
